<svg width="24" height="24" viewBox="0 0 24 24" fill="none" xmlns="http://www.w3.org/2000/svg">
<g opacity="0.6">
<path fill-rule="evenodd" clip-rule="evenodd" d="M18.3602 19.369L17.5933 14.7081C17.5925 14.7029 17.5942 14.6981 17.5972 14.6951L20.8458 11.3942C21.2877 10.9452 21.4438 10.2849 21.2534 9.674C21.0629 9.06295 20.5637 8.62348 19.9519 8.53083L15.4622 7.85077C15.4592 7.85032 15.4558 7.84823 15.4538 7.84395L13.446 3.60323C13.1731 3.0268 12.6182 2.66663 11.9998 2.66663C11.3815 2.66663 10.8265 3.02681 10.5537 3.60323L8.54594 7.84387C8.54386 7.84824 8.5404 7.85036 8.53733 7.85083L4.04786 8.53083C3.43598 8.62347 2.93684 9.06294 2.74632 9.67397C2.55584 10.2849 2.71197 10.9452 3.1539 11.3942L6.40255 14.6952C6.40553 14.6982 6.40718 14.7031 6.40636 14.708L5.63944 19.3691C5.53533 20.002 5.78078 20.6322 6.28027 21.0106C6.78004 21.3892 7.43267 21.4383 7.9796 21.1386L11.9952 18.938C11.9982 18.9363 12.0015 18.9363 12.0046 18.938L16.0202 21.1386C16.2573 21.2686 16.5151 21.3333 16.7724 21.3333C17.1066 21.3333 17.4377 21.224 17.7194 21.0105C18.2189 20.6322 18.4644 20.0019 18.3602 19.369ZM16.7476 19.7141C16.7476 19.7141 16.7476 19.7141 16.7476 19.7141C16.7544 19.7179 16.7596 19.7196 16.7631 19.7206C16.7668 19.7215 16.7697 19.7218 16.7722 19.7218C16.7754 19.7218 16.7791 19.7213 16.7831 19.7199C16.7869 19.7187 16.7929 19.716 16.8009 19.71C16.8144 19.6997 16.8208 19.6896 16.824 19.6813C16.8272 19.673 16.8301 19.66 16.8268 19.6399L16.0599 14.9789C15.9727 14.4481 16.1449 13.9165 16.5033 13.5493L16.5079 13.5446L19.7566 10.2437C19.7566 10.2437 19.7566 10.2437 19.7566 10.2437C19.769 10.2311 19.7738 10.22 19.7759 10.2109C19.7781 10.2017 19.7791 10.1883 19.7731 10.1691C19.7671 10.1501 19.7593 10.1413 19.7543 10.1369C19.7494 10.1326 19.7418 10.1277 19.7269 10.1254L15.2377 9.44541C15.2375 9.44538 15.2379 9.44544 15.2377 9.44541C14.7296 9.36845 14.2861 9.03708 14.0572 8.55361C14.0572 8.55355 14.0572 8.55366 14.0572 8.55361L12.0494 4.31289C12.0411 4.29538 12.0325 4.28823 12.0275 4.28499C12.0227 4.28184 12.0149 4.27814 11.9998 4.27814C11.9848 4.27814 11.977 4.28184 11.9721 4.28499C11.9671 4.28823 11.9586 4.2953 11.9503 4.31281L9.94166 8.5554C9.71172 9.03946 9.26837 9.36863 8.76271 9.44534L4.2729 10.1254C4.25796 10.1276 4.25028 10.1326 4.24542 10.1369C4.24041 10.1413 4.23255 10.1501 4.22657 10.1693C4.22061 10.1884 4.22157 10.2018 4.22372 10.2109C4.22586 10.2199 4.23062 10.231 4.24309 10.2437L7.49552 13.5485L7.49923 13.5523C7.86195 13.9258 8.02544 14.4583 7.9398 14.9788C7.93979 14.9789 7.93981 14.9788 7.9398 14.9788L7.17289 19.6398C7.17289 19.6398 7.1729 19.6398 7.17289 19.6398C7.16959 19.66 7.17247 19.6731 7.17572 19.6814C7.17892 19.6897 7.1848 19.6994 7.19835 19.7096C7.21166 19.7197 7.22054 19.7213 7.22507 19.7217C7.22959 19.722 7.23815 19.7218 7.25222 19.7141C7.25224 19.7141 7.25219 19.7142 7.25222 19.7141L11.2678 17.5135C11.7243 17.2633 12.2715 17.2619 12.7303 17.5126L12.732 17.5135L16.7476 19.7141Z" fill="white"/>
</g>
</svg>
